<svg width="38" height="37" viewBox="0 0 38 37" fill="none" xmlns="http://www.w3.org/2000/svg">
<path d="M20.5087 20.8095L26.8852 16.7377C27.3718 16.4304 27.615 15.9951 27.615 15.4317C27.615 14.8683 27.3718 14.433 26.8852 14.1257L20.5087 10.0539C19.9965 9.69542 19.4715 9.66981 18.9338 9.97711C18.396 10.2844 18.1271 10.7326 18.1271 11.3216V19.5419C18.1271 20.1309 18.396 20.579 18.9338 20.8863C19.4715 21.1936 19.9965 21.168 20.5087 20.8095ZM12.7493 27.7238C11.9042 27.7238 11.1811 27.4231 10.5798 26.8218C9.97746 26.2195 9.67631 25.4958 9.67631 24.6508V6.21266C9.67631 5.36758 9.97746 4.64389 10.5798 4.04158C11.1811 3.44029 11.9042 3.13965 12.7493 3.13965H31.1874C32.0325 3.13965 32.7562 3.44029 33.3585 4.04158C33.9598 4.64389 34.2604 5.36758 34.2604 6.21266V24.6508C34.2604 25.4958 33.9598 26.2195 33.3585 26.8218C32.7562 27.4231 32.0325 27.7238 31.1874 27.7238H12.7493ZM6.60329 33.8698C5.75821 33.8698 5.03503 33.5692 4.43374 32.9679C3.83143 32.3656 3.53027 31.6419 3.53027 30.7968V10.8222C3.53027 10.3868 3.67778 10.0217 3.97279 9.72666C4.26677 9.43267 4.63144 9.28568 5.06678 9.28568C5.50213 9.28568 5.8673 9.43267 6.16231 9.72666C6.4563 10.0217 6.60329 10.3868 6.60329 10.8222V30.7968H26.5779C27.0132 30.7968 27.3779 30.9443 27.6719 31.2393C27.9669 31.5333 28.1144 31.898 28.1144 32.3333C28.1144 32.7686 27.9669 33.1333 27.6719 33.4273C27.3779 33.7223 27.0132 33.8698 26.5779 33.8698H6.60329Z" fill="#CCCCCC"/>
</svg>
